name,route,ticker,picture,approval,createdAt
Qarrington,qa,QA,/assets/media/drafts/qarrington.png,TRUE,10/10/2021
Airbnb,air,AIR,/assets/media/drafts/airbnb.png,FALSE,12/7/2021
Boundless,bnd,BND,/assets/media/drafts/boundless.png,TRUE,8/11/2022
